…
## TODOS

  - Improve rudimentary documentation for `uhreg` and `data_dict`
  - Add function that dummifies categorical variables

## `data_dict`

``` r
library(dplyr)
library(purrr)
data_dict
```

    ## # A tibble: 294 x 4
    ##    variable                     variable_original                              description                                   value     
    ##    <chr>                        <chr>                                          <chr>                                         <list>    
    ##  1 .META_patient_id             new_ID                                         Patient ID                                    <NULL>    
    ##  2 .META_treatment_code         treatment_code                                 Treatment code                                <chr [75]>
    ##  3 .META_visit_day              visit_day                                      Day of visit                                  <NULL>    
    ##  4 .META_visit_type             visit_type                                     Type of visit                                 <chr [5]> 
    ##  5 AUDIO_duration               audiological_examination_duration              Audiological examination: duration in seconds <chr [1]> 
    ##  6 AUDIO_left_frequency_loss_01 audiological_examination_left_frequency_loss_1 Left ear: hearing loss at frequency 125Hz     <chr [2]> 
    ##  7 AUDIO_left_frequency_loss_02 audiological_examination_left_frequency_loss_2 Left ear: hearing loss at frequency 250Hz     <chr [2]> 
    ##  8 AUDIO_left_frequency_loss_03 audiological_examination_left_frequency_loss_3 Left ear: hearing loss at frequency 500Hz     <chr [2]> 
    ##  9 AUDIO_left_frequency_loss_04 audiological_examination_left_frequency_loss_4 Left ear: hearing loss at frequency 1kHz      <chr [2]> 
    ## 10 AUDIO_left_frequency_loss_05 audiological_examination_left_frequency_loss_5 Left ear: hearing loss at frequency 2kHz      <chr [2]> 
    ## # ... with 284 more rows
…
